…
``` r
bmi.data <- bmi.data %>%
  # Reshape bmi.data into long format
  gather(key = "BMI_cat", value = "count", normal, overweight, obese) %>% 
  # Duplicate the rows according to the counts
  uncount(weights = count)

# Check
bmi.data %>% count(age, BMI_cat)
```

    # A tibble: 239 x 3
         age BMI_cat        n
       <int> <chr>      <int>
     1     0 normal        32
     2     0 obese          1
     3     0 overweight     1
     4     1 normal        47
     5     1 obese          2
     6     2 normal        52
     7     2 obese          2
     8     3 normal        55
     9     3 obese          1
    10     4 normal        46
    # … with 229 more rows
We notice that `obese` is before `overweight`, according to the
alphabet. We turn `BMI_cat` into a categorical variable (factor) having
the levels in the correct order.

``` r
# Make BMI_cat a factor with levels normal, overweight and obese
bmi.data <- bmi.data %>%
  mutate(
    BMI_cat = BMI_cat %>% factor(levels = c("normal", "overweight", "obese")))

# Check
bmi.data %>% count(age, BMI_cat)
```

    # A tibble: 239 x 3
         age BMI_cat        n
       <int> <fct>      <int>
     1     0 normal        32
     2     0 overweight     1
     3     0 obese          1
     4     1 normal        47
     5     1 obese          2
     6     2 normal        52
     7     2 obese          2
     8     3 normal        55
     9     3 obese          1
    10     4 normal        46
    # … with 229 more rows
…
